{
	"id": "5ffec125-364e-dea7-64b2-2dbd70ea8d21",
	"name": "Dominos FB GameContest",
	"description": "",
	"order": [
		"c93e9377-1e7f-fd24-a5db-6bbe6d45ef4a",
		"fd3855da-c556-6692-3506-88cc9e3e1846",
		"1761c8e2-238a-3890-b7a7-a35185546f06"
	],
	"folders": [],
	"timestamp": 1441264913132,
	"owner": "",
	"remoteLink": "",
	"public": false,
	"requests": [
		{
			"id": "1761c8e2-238a-3890-b7a7-a35185546f06",
			"headers": "",
			"url": "https://52.74.121.2:8099/api/GameContest/AwardFBCoupon",
			"preRequestScript": "",
			"pathVariables": {},
			"method": "POST",
			"data": [
				{
					"key": "AppKey",
					"value": "DominosFBGameUAT",
					"type": "text",
					"enabled": true
				},
				{
					"key": "FBCouponCode",
					"value": "MR01",
					"type": "text",
					"enabled": true
				},
				{
					"key": "Email",
					"value": "localuser44300@mailinator.com",
					"type": "text",
					"enabled": true
				}
			],
			"dataMode": "urlencoded",
			"version": 2,
			"tests": "",
			"currentHelper": "normal",
			"helperAttributes": {},
			"time": 1441350121438,
			"name": "Award Ecoupon",
			"description": "",
			"collectionId": "5ffec125-364e-dea7-64b2-2dbd70ea8d21",
			"responses": []
		},
		{
			"id": "c93e9377-1e7f-fd24-a5db-6bbe6d45ef4a",
			"headers": "",
			"url": "https://52.74.121.2:8099/api/GameContest/VerifyUserRegistration",
			"preRequestScript": "",
			"pathVariables": {},
			"method": "POST",
			"data": [
				{
					"key": "AppKey",
					"value": "DominosFBGameUAT",
					"type": "text",
					"enabled": true
				},
				{
					"key": "Email",
					"value": "testmail@mail.com",
					"type": "text",
					"enabled": true
				}
			],
			"dataMode": "urlencoded",
			"version": 2,
			"tests": "",
			"currentHelper": "normal",
			"helperAttributes": {},
			"time": 1441350070675,
			"name": "Verify User Registration",
			"description": "",
			"collectionId": "5ffec125-364e-dea7-64b2-2dbd70ea8d21",
			"responses": []
		},
		{
			"id": "fd3855da-c556-6692-3506-88cc9e3e1846",
			"headers": "",
			"url": "https://api.dominos.com.my/api/GameContest/GetCustomerCheeseBurstInfo",
			"preRequestScript": "",
			"pathVariables": {},
			"method": "POST",
			"data": [
				{
					"key": "AppKey",
					"value": "DominosFBGameUAT",
					"type": "text",
					"enabled": true
				},
				{
					"key": "StartDate",
					"value": "2015-03-26 09:48:40.103",
					"type": "text",
					"enabled": true
				},
				{
					"key": "EndDate",
					"value": "2015-09-04 09:48:40.103",
					"type": "text",
					"enabled": true
				},
				{
					"key": "Email",
					"value": "localuser44300@mailinator.com",
					"type": "text",
					"enabled": true
				}
			],
			"dataMode": "urlencoded",
			"version": 2,
			"tests": "",
			"currentHelper": "normal",
			"helperAttributes": {},
			"time": 1441350086976,
			"name": "Get Cust CB info",
			"description": "",
			"collectionId": "5ffec125-364e-dea7-64b2-2dbd70ea8d21",
			"responses": []
		}
	]
}